{"name":"Obtener list data reqrest","id":"get-list-data;obtener-list-data-reqrest","testSteps":[{"number":1,"description":"Given get webservice","duration":1853,"startTime":"2020-02-07T09:20:41.385-05:00[America/Bogota]","result":"SUCCESS","precondition":false,"level":0,"children":[{"number":2,"description":"GET https://reqres.in/api/users?page\u003d2","duration":0,"startTime":"2020-02-07T09:20:43.236-05:00[America/Bogota]","result":"SUCCESS","restQuery":{"method":"GET","path":"https://reqres.in/api/users?page\u003d2","content":"","contentType":"null","requestHeaders":"Accept\u003d*/*","requestCookies":"","responseHeaders":"Age: 917\nVia: 1.1 vegur, 1.1 10.138.0.58 (McAfee Web Gateway 7.8.2.3.0.26967)\nDate: Fri, 07 Feb 2020 14:18:25 GMT\nEtag: W/\"414-k36Lu9tCb0XMJeh2/UG19C4xbw4\"\nCF-RAY: 5615fe32ff1e5330-MIA\nServer: cloudflare\nX-Cache: MISS from 10.138.0.58\nExpect-CT: max-age\u003d604800, report-uri\u003d\"https://report-uri.cloudflare.com/cdn-cgi/beacon/expect-ct\"\nConnection: Keep-Alive\nSet-Cookie: __cfduid\u003dd69be3d694ba2be1b7a47e9e021d052601581085105; expires\u003dSun, 08-Mar-20 14:18:25 GMT; path\u003d/; domain\u003d.reqres.in; HttpOnly; SameSite\u003dLax; Secure\nContent-Type: application/json; charset\u003dutf-8\nX-Powered-By: Express\nCache-Control: max-age\u003d14400\nCF-Cache-Status: HIT\nTransfer-Encoding: chunked\nAccess-Control-Allow-Origin: *","responseCookies":"__cfduid\u003dd69be3d694ba2be1b7a47e9e021d052601581085105;Path\u003d/;Domain\u003d.reqres.in;Secure;HttpOnly;Expires\u003d8/03/20 14:18","responseBody":"{\n    \"page\": 2,\n    \"per_page\": 6,\n    \"total\": 12,\n    \"total_pages\": 2,\n    \"data\": [\n        {\n            \"id\": 7,\n            \"email\": \"michael.lawson@reqres.in\",\n            \"first_name\": \"Michael\",\n            \"last_name\": \"Lawson\",\n            \"avatar\": \"https://s3.amazonaws.com/uifaces/faces/twitter/follettkyle/128.jpg\"\n        },\n        {\n            \"id\": 8,\n            \"email\": \"lindsay.ferguson@reqres.in\",\n            \"first_name\": \"Lindsay\",\n            \"last_name\": \"Ferguson\",\n            \"avatar\": \"https://s3.amazonaws.com/uifaces/faces/twitter/araa3185/128.jpg\"\n        },\n        {\n            \"id\": 9,\n            \"email\": \"tobias.funke@reqres.in\",\n            \"first_name\": \"Tobias\",\n            \"last_name\": \"Funke\",\n            \"avatar\": \"https://s3.amazonaws.com/uifaces/faces/twitter/vivekprvr/128.jpg\"\n        },\n        {\n            \"id\": 10,\n            \"email\": \"byron.fields@reqres.in\",\n            \"first_name\": \"Byron\",\n            \"last_name\": \"Fields\",\n            \"avatar\": \"https://s3.amazonaws.com/uifaces/faces/twitter/russoedu/128.jpg\"\n        },\n        {\n            \"id\": 11,\n            \"email\": \"george.edwards@reqres.in\",\n            \"first_name\": \"George\",\n            \"last_name\": \"Edwards\",\n            \"avatar\": \"https://s3.amazonaws.com/uifaces/faces/twitter/mrmoiree/128.jpg\"\n        },\n        {\n            \"id\": 12,\n            \"email\": \"rachel.howell@reqres.in\",\n            \"first_name\": \"Rachel\",\n            \"last_name\": \"Howell\",\n            \"avatar\": \"https://s3.amazonaws.com/uifaces/faces/twitter/hebertialmeida/128.jpg\"\n        }\n    ]\n}","statusCode":200},"precondition":false,"level":1}]},{"number":3,"description":"When no implemented","duration":1,"startTime":"2020-02-07T09:20:43.238-05:00[America/Bogota]","result":"SUCCESS","precondition":false,"level":0},{"number":4,"description":"And se obtiene lista de id usuarios","duration":1,"startTime":"2020-02-07T09:20:43.240-05:00[America/Bogota]","result":"SUCCESS","precondition":false,"level":0}],"userStory":{"id":"get-list-data","storyName":"get list data","path":"example/pasivos/api/get/getListDataJson.feature","narrative":"  Yo como ingeniero\n  quiero obtener la informacion en listas\n  para validar los datos\n\n  informacion adicional para el reporte de serenity","type":"feature"},"featureTag":{"name":"Get/get list data","type":"feature","displayName":"Get/get list data"},"title":"Obtener list data reqrest","tags":[{"name":"Get/get list data","type":"feature","displayName":"get list data"},{"name":"GetListData","type":"Backend","displayName":"GetListData"},{"name":"Pasivos/Api","type":"theme","displayName":"Api"},{"name":"Example/Pasivos","type":"theme","displayName":"Pasivos"},{"name":"Api/Get","type":"capability","displayName":"Get"},{"name":"example","type":"tag","displayName":"example"},{"name":"Example","type":"theme","displayName":"Example"}],"startTime":"2020-02-07T09:20:41.366-05:00[America/Bogota]","duration":1876,"projectKey":"","isManualTestingUpToDate":false,"manual":false,"testSource":"Cucumber","result":"SUCCESS"}